{
  "project_info": {
    "project_number": "148264501206",
    "firebase_url": "https://foodsharing-9e5e2.firebaseio.com",
    "project_id": "foodsharing-9e5e2",
    "storage_bucket": "foodsharing-9e5e2.appspot.com"
  },
  "client": [
    {
      "client_info": {
        "mobilesdk_app_id": "1:148264501206:android:fac3c0a6ef6ca777842e77",
        "android_client_info": {
          "package_name": "de.foodsharing.app"
        }
      },
      "oauth_client": [
        {
          "client_id": "148264501206-1c970bt5he4qqo585sq5qhk9f6pkueen.apps.googleusercontent.com",
          "client_type": 3
        }
      ],
      "api_key": [
        {
          "current_key": "AIzaSyA4CsdSVPLyagghGoAPlGw-rRYx_LApijk"
        }
      ],
      "services": {
        "appinvite_service": {
          "other_platform_oauth_client": [
            {
              "client_id": "148264501206-1c970bt5he4qqo585sq5qhk9f6pkueen.apps.googleusercontent.com",
              "client_type": 3
            }
          ]
        }
      }
    },
    {
      "client_info": {
        "mobilesdk_app_id": "1:148264501206:android:64f27e5d8528165a",
        "android_client_info": {
          "package_name": "de.foodsharing.debug"
        }
      },
      "oauth_client": [
        {
          "client_id": "148264501206-1c970bt5he4qqo585sq5qhk9f6pkueen.apps.googleusercontent.com",
          "client_type": 3
        }
      ],
      "api_key": [
        {
          "current_key": "AIzaSyA4CsdSVPLyagghGoAPlGw-rRYx_LApijk"
        }
      ],
      "services": {
        "appinvite_service": {
          "other_platform_oauth_client": [
            {
              "client_id": "148264501206-1c970bt5he4qqo585sq5qhk9f6pkueen.apps.googleusercontent.com",
              "client_type": 3
            }
          ]
        }
      }
    },
    {
      "client_info": {
        "mobilesdk_app_id": "1:148264501206:android:2a3f03173955df1b842e77",
        "android_client_info": {
          "package_name": "de.foodsharing.beta"
        }
      },
      "oauth_client": [
        {
          "client_id": "148264501206-1c970bt5he4qqo585sq5qhk9f6pkueen.apps.googleusercontent.com",
          "client_type": 3
        }
      ],
      "api_key": [
        {
          "current_key": "AIzaSyA4CsdSVPLyagghGoAPlGw-rRYx_LApijk"
        }
      ],
      "services": {
        "appinvite_service": {
          "other_platform_oauth_client": [
            {
              "client_id": "148264501206-1c970bt5he4qqo585sq5qhk9f6pkueen.apps.googleusercontent.com",
              "client_type": 3
            }
          ]
        }
      }
    }
  ],
  "configuration_version": "1"
}